Ref,Val,Package,PosX,PosY,Rot,Side
"R28","0R","R_0603_1608Metric_Pad0.98x0.95mm_HandSolder",123.100000,-87.800000,90.000000,top
"R29","0R","R_0603_1608Metric_Pad0.98x0.95mm_HandSolder",123.100000,-91.300000,270.000000,top
